<session jtag_chain="USB-Blaster [USB-0]" jtag_device="@1: 10CL120(Y|Z)/EP3C120/.. (0x020F70DD)" sof_file="">
  <display_tree gui_logging_enabled="0">
    <display_branch instance="auto_signaltap_0" log="USE_GLOBAL_TEMP" signal_set="USE_GLOBAL_TEMP" trigger="USE_GLOBAL_TEMP"/>
  </display_tree>
  <instance enabled="true" entity_name="sld_signaltap" is_auto_node="yes" is_expanded="true" name="auto_signaltap_0" source_file="sld_signaltap.vhd">
    <node_ip_info instance_id="0" mfg_id="110" node_id="0" version="6"/>
    <signal_set global_temp="1" is_expanded="true" name="signal_set: 2023/09/09 18:12:53  #0">
      <clock name="clk" polarity="posedge" tap_mode="probeonly"/>
      <config pipeline_level="0" ram_type="AUTO" reserved_data_nodes="0" reserved_storage_qualifier_nodes="0" reserved_trigger_nodes="0" sample_depth="128" trigger_in_enable="no" trigger_out_enable="no"/>
      <top_entity/>
      <signal_vec>
        <trigger_input_vec>
          <wire name="clk~input" tap_mode="probeonly"/>
          <wire name="clk~inputclkctrl" tap_mode="probeonly"/>
          <wire name="multiplicand_in[0]~input" tap_mode="probeonly"/>
          <wire name="multiplicand_in[1]~input" tap_mode="probeonly"/>
          <wire name="multiplicand_in[2]~input" tap_mode="probeonly"/>
          <wire name="multiplicand_in[3]~input" tap_mode="probeonly"/>
          <wire name="multiplicand_in[4]~input" tap_mode="probeonly"/>
          <wire name="multiplicand_in[5]~input" tap_mode="probeonly"/>
          <wire name="multiplicand_in[6]~input" tap_mode="probeonly"/>
          <wire name="multiplicand_in[7]~input" tap_mode="probeonly"/>
          <wire name="multiplier_in[0]~input" tap_mode="probeonly"/>
          <wire name="multiplier_in[1]~input" tap_mode="probeonly"/>
          <wire name="multiplier_in[2]~input" tap_mode="probeonly"/>
          <wire name="multiplier_in[3]~input" tap_mode="probeonly"/>
          <wire name="multiplier_in[4]~input" tap_mode="probeonly"/>
          <wire name="multiplier_in[5]~input" tap_mode="probeonly"/>
          <wire name="multiplier_in[6]~input" tap_mode="probeonly"/>
          <wire name="multiplier_in[7]~input" tap_mode="probeonly"/>
          <wire name="rst" tap_mode="probeonly"/>
          <wire name="rst~input" tap_mode="probeonly"/>
          <wire name="seq_multiplier:multiplier|universal_register:accumulator|register_r[0]~18" tap_mode="probeonly"/>
          <wire name="seq_multiplier:multiplier|universal_register:accumulator|register_r[10]~38" tap_mode="probeonly"/>
          <wire name="seq_multiplier:multiplier|universal_register:accumulator|register_r[11]~40" tap_mode="probeonly"/>
          <wire name="seq_multiplier:multiplier|universal_register:accumulator|register_r[12]~42" tap_mode="probeonly"/>
          <wire name="seq_multiplier:multiplier|universal_register:accumulator|register_r[13]~44" tap_mode="probeonly"/>
          <wire name="seq_multiplier:multiplier|universal_register:accumulator|register_r[14]~46" tap_mode="probeonly"/>
          <wire name="seq_multiplier:multiplier|universal_register:accumulator|register_r[15]~48" tap_mode="probeonly"/>
          <wire name="seq_multiplier:multiplier|universal_register:accumulator|register_r[1]~20" tap_mode="probeonly"/>
          <wire name="seq_multiplier:multiplier|universal_register:accumulator|register_r[2]~22" tap_mode="probeonly"/>
          <wire name="seq_multiplier:multiplier|universal_register:accumulator|register_r[3]~24" tap_mode="probeonly"/>
          <wire name="seq_multiplier:multiplier|universal_register:accumulator|register_r[4]~26" tap_mode="probeonly"/>
          <wire name="seq_multiplier:multiplier|universal_register:accumulator|register_r[5]~28" tap_mode="probeonly"/>
          <wire name="seq_multiplier:multiplier|universal_register:accumulator|register_r[6]~30" tap_mode="probeonly"/>
          <wire name="seq_multiplier:multiplier|universal_register:accumulator|register_r[7]~32" tap_mode="probeonly"/>
          <wire name="seq_multiplier:multiplier|universal_register:accumulator|register_r[8]~34" tap_mode="probeonly"/>
          <wire name="seq_multiplier:multiplier|universal_register:accumulator|register_r[9]~36" tap_mode="probeonly"/>
          <wire name="start_in" tap_mode="probeonly"/>
          <wire name="start_in~input" tap_mode="probeonly"/>
          <wire name="universal_register:product_register|register_r[0]~feeder" tap_mode="probeonly"/>
          <wire name="universal_register:product_register|register_r[15]~feeder" tap_mode="probeonly"/>
          <wire name="universal_register:product_register|register_r[1]~feeder" tap_mode="probeonly"/>
        </trigger_input_vec>
        <data_input_vec>
          <wire name="clk~input" tap_mode="probeonly"/>
          <wire name="clk~inputclkctrl" tap_mode="probeonly"/>
          <wire name="multiplicand_in[0]~input" tap_mode="probeonly"/>
          <wire name="multiplicand_in[1]~input" tap_mode="probeonly"/>
          <wire name="multiplicand_in[2]~input" tap_mode="probeonly"/>
          <wire name="multiplicand_in[3]~input" tap_mode="probeonly"/>
          <wire name="multiplicand_in[4]~input" tap_mode="probeonly"/>
          <wire name="multiplicand_in[5]~input" tap_mode="probeonly"/>
          <wire name="multiplicand_in[6]~input" tap_mode="probeonly"/>
          <wire name="multiplicand_in[7]~input" tap_mode="probeonly"/>
          <wire name="multiplier_in[0]~input" tap_mode="probeonly"/>
          <wire name="multiplier_in[1]~input" tap_mode="probeonly"/>
          <wire name="multiplier_in[2]~input" tap_mode="probeonly"/>
          <wire name="multiplier_in[3]~input" tap_mode="probeonly"/>
          <wire name="multiplier_in[4]~input" tap_mode="probeonly"/>
          <wire name="multiplier_in[5]~input" tap_mode="probeonly"/>
          <wire name="multiplier_in[6]~input" tap_mode="probeonly"/>
          <wire name="multiplier_in[7]~input" tap_mode="probeonly"/>
          <wire name="rst" tap_mode="probeonly"/>
          <wire name="rst~input" tap_mode="probeonly"/>
          <wire name="seq_multiplier:multiplier|universal_register:accumulator|register_r[0]~18" tap_mode="probeonly"/>
          <wire name="seq_multiplier:multiplier|universal_register:accumulator|register_r[10]~38" tap_mode="probeonly"/>
          <wire name="seq_multiplier:multiplier|universal_register:accumulator|register_r[11]~40" tap_mode="probeonly"/>
          <wire name="seq_multiplier:multiplier|universal_register:accumulator|register_r[12]~42" tap_mode="probeonly"/>
          <wire name="seq_multiplier:multiplier|universal_register:accumulator|register_r[13]~44" tap_mode="probeonly"/>
          <wire name="seq_multiplier:multiplier|universal_register:accumulator|register_r[14]~46" tap_mode="probeonly"/>
          <wire name="seq_multiplier:multiplier|universal_register:accumulator|register_r[15]~48" tap_mode="probeonly"/>
          <wire name="seq_multiplier:multiplier|universal_register:accumulator|register_r[1]~20" tap_mode="probeonly"/>
          <wire name="seq_multiplier:multiplier|universal_register:accumulator|register_r[2]~22" tap_mode="probeonly"/>
          <wire name="seq_multiplier:multiplier|universal_register:accumulator|register_r[3]~24" tap_mode="probeonly"/>
          <wire name="seq_multiplier:multiplier|universal_register:accumulator|register_r[4]~26" tap_mode="probeonly"/>
          <wire name="seq_multiplier:multiplier|universal_register:accumulator|register_r[5]~28" tap_mode="probeonly"/>
          <wire name="seq_multiplier:multiplier|universal_register:accumulator|register_r[6]~30" tap_mode="probeonly"/>
          <wire name="seq_multiplier:multiplier|universal_register:accumulator|register_r[7]~32" tap_mode="probeonly"/>
          <wire name="seq_multiplier:multiplier|universal_register:accumulator|register_r[8]~34" tap_mode="probeonly"/>
          <wire name="seq_multiplier:multiplier|universal_register:accumulator|register_r[9]~36" tap_mode="probeonly"/>
          <wire name="start_in" tap_mode="probeonly"/>
          <wire name="start_in~input" tap_mode="probeonly"/>
          <wire name="universal_register:product_register|register_r[0]~feeder" tap_mode="probeonly"/>
          <wire name="universal_register:product_register|register_r[15]~feeder" tap_mode="probeonly"/>
          <wire name="universal_register:product_register|register_r[1]~feeder" tap_mode="probeonly"/>
        </data_input_vec>
        <storage_qualifier_input_vec>
          <wire name="clk~input" tap_mode="probeonly"/>
          <wire name="clk~inputclkctrl" tap_mode="probeonly"/>
          <wire name="multiplicand_in[0]~input" tap_mode="probeonly"/>
          <wire name="multiplicand_in[1]~input" tap_mode="probeonly"/>
          <wire name="multiplicand_in[2]~input" tap_mode="probeonly"/>
          <wire name="multiplicand_in[3]~input" tap_mode="probeonly"/>
          <wire name="multiplicand_in[4]~input" tap_mode="probeonly"/>
          <wire name="multiplicand_in[5]~input" tap_mode="probeonly"/>
          <wire name="multiplicand_in[6]~input" tap_mode="probeonly"/>
          <wire name="multiplicand_in[7]~input" tap_mode="probeonly"/>
          <wire name="multiplier_in[0]~input" tap_mode="probeonly"/>
          <wire name="multiplier_in[1]~input" tap_mode="probeonly"/>
          <wire name="multiplier_in[2]~input" tap_mode="probeonly"/>
          <wire name="multiplier_in[3]~input" tap_mode="probeonly"/>
          <wire name="multiplier_in[4]~input" tap_mode="probeonly"/>
          <wire name="multiplier_in[5]~input" tap_mode="probeonly"/>
          <wire name="multiplier_in[6]~input" tap_mode="probeonly"/>
          <wire name="multiplier_in[7]~input" tap_mode="probeonly"/>
          <wire name="rst" tap_mode="probeonly"/>
          <wire name="rst~input" tap_mode="probeonly"/>
          <wire name="seq_multiplier:multiplier|universal_register:accumulator|register_r[0]~18" tap_mode="probeonly"/>
          <wire name="seq_multiplier:multiplier|universal_register:accumulator|register_r[10]~38" tap_mode="probeonly"/>
          <wire name="seq_multiplier:multiplier|universal_register:accumulator|register_r[11]~40" tap_mode="probeonly"/>
          <wire name="seq_multiplier:multiplier|universal_register:accumulator|register_r[12]~42" tap_mode="probeonly"/>
          <wire name="seq_multiplier:multiplier|universal_register:accumulator|register_r[13]~44" tap_mode="probeonly"/>
          <wire name="seq_multiplier:multiplier|universal_register:accumulator|register_r[14]~46" tap_mode="probeonly"/>
          <wire name="seq_multiplier:multiplier|universal_register:accumulator|register_r[15]~48" tap_mode="probeonly"/>
          <wire name="seq_multiplier:multiplier|universal_register:accumulator|register_r[1]~20" tap_mode="probeonly"/>
          <wire name="seq_multiplier:multiplier|universal_register:accumulator|register_r[2]~22" tap_mode="probeonly"/>
          <wire name="seq_multiplier:multiplier|universal_register:accumulator|register_r[3]~24" tap_mode="probeonly"/>
          <wire name="seq_multiplier:multiplier|universal_register:accumulator|register_r[4]~26" tap_mode="probeonly"/>
          <wire name="seq_multiplier:multiplier|universal_register:accumulator|register_r[5]~28" tap_mode="probeonly"/>
          <wire name="seq_multiplier:multiplier|universal_register:accumulator|register_r[6]~30" tap_mode="probeonly"/>
          <wire name="seq_multiplier:multiplier|universal_register:accumulator|register_r[7]~32" tap_mode="probeonly"/>
          <wire name="seq_multiplier:multiplier|universal_register:accumulator|register_r[8]~34" tap_mode="probeonly"/>
          <wire name="seq_multiplier:multiplier|universal_register:accumulator|register_r[9]~36" tap_mode="probeonly"/>
          <wire name="start_in" tap_mode="probeonly"/>
          <wire name="start_in~input" tap_mode="probeonly"/>
          <wire name="universal_register:product_register|register_r[0]~feeder" tap_mode="probeonly"/>
          <wire name="universal_register:product_register|register_r[15]~feeder" tap_mode="probeonly"/>
          <wire name="universal_register:product_register|register_r[1]~feeder" tap_mode="probeonly"/>
        </storage_qualifier_input_vec>
      </signal_vec>
      <presentation>
        <unified_setup_data_view>
          <node data_index="0" duplicate_name_allowed="false" is_data_input="true" is_node_valid="true" is_selected="false" is_storage_input="true" is_trigger_input="true" level-0="falling edge" name="clk~input" storage_index="0" tap_mode="probeonly" trigger_index="0" type="unknown"/>
          <node data_index="1" duplicate_name_allowed="false" is_data_input="true" is_node_valid="true" is_selected="false" is_storage_input="true" is_trigger_input="true" level-0="falling edge" name="clk~inputclkctrl" storage_index="1" tap_mode="probeonly" trigger_index="1" type="unknown"/>
          <node data_index="2" duplicate_name_allowed="false" is_data_input="true" is_node_valid="true" is_selected="false" is_storage_input="true" is_trigger_input="true" name="multiplicand_in[0]~input" storage_index="2" tap_mode="probeonly" trigger_index="2" type="unknown"/>
          <node data_index="3" duplicate_name_allowed="false" is_data_input="true" is_node_valid="true" is_selected="false" is_storage_input="true" is_trigger_input="true" name="multiplicand_in[1]~input" storage_index="3" tap_mode="probeonly" trigger_index="3" type="unknown"/>
          <node data_index="4" duplicate_name_allowed="false" is_data_input="true" is_node_valid="true" is_selected="false" is_storage_input="true" is_trigger_input="true" name="multiplicand_in[2]~input" storage_index="4" tap_mode="probeonly" trigger_index="4" type="unknown"/>
          <node data_index="5" duplicate_name_allowed="false" is_data_input="true" is_node_valid="true" is_selected="false" is_storage_input="true" is_trigger_input="true" name="multiplicand_in[3]~input" storage_index="5" tap_mode="probeonly" trigger_index="5" type="unknown"/>
          <node data_index="6" duplicate_name_allowed="false" is_data_input="true" is_node_valid="true" is_selected="false" is_storage_input="true" is_trigger_input="true" name="multiplicand_in[4]~input" storage_index="6" tap_mode="probeonly" trigger_index="6" type="unknown"/>
          <node data_index="7" duplicate_name_allowed="false" is_data_input="true" is_node_valid="true" is_selected="false" is_storage_input="true" is_trigger_input="true" name="multiplicand_in[5]~input" storage_index="7" tap_mode="probeonly" trigger_index="7" type="unknown"/>
          <node data_index="8" duplicate_name_allowed="false" is_data_input="true" is_node_valid="true" is_selected="false" is_storage_input="true" is_trigger_input="true" name="multiplicand_in[6]~input" storage_index="8" tap_mode="probeonly" trigger_index="8" type="unknown"/>
          <node data_index="9" duplicate_name_allowed="false" is_data_input="true" is_node_valid="true" is_selected="false" is_storage_input="true" is_trigger_input="true" name="multiplicand_in[7]~input" storage_index="9" tap_mode="probeonly" trigger_index="9" type="unknown"/>
          <node data_index="10" duplicate_name_allowed="false" is_data_input="true" is_node_valid="true" is_selected="false" is_storage_input="true" is_trigger_input="true" name="multiplier_in[0]~input" storage_index="10" tap_mode="probeonly" trigger_index="10" type="unknown"/>
          <node data_index="11" duplicate_name_allowed="false" is_data_input="true" is_node_valid="true" is_selected="false" is_storage_input="true" is_trigger_input="true" name="multiplier_in[1]~input" storage_index="11" tap_mode="probeonly" trigger_index="11" type="unknown"/>
          <node data_index="12" duplicate_name_allowed="false" is_data_input="true" is_node_valid="true" is_selected="false" is_storage_input="true" is_trigger_input="true" name="multiplier_in[2]~input" storage_index="12" tap_mode="probeonly" trigger_index="12" type="unknown"/>
          <node data_index="13" duplicate_name_allowed="false" is_data_input="true" is_node_valid="true" is_selected="false" is_storage_input="true" is_trigger_input="true" name="multiplier_in[3]~input" storage_index="13" tap_mode="probeonly" trigger_index="13" type="unknown"/>
          <node data_index="14" duplicate_name_allowed="false" is_data_input="true" is_node_valid="true" is_selected="false" is_storage_input="true" is_trigger_input="true" name="multiplier_in[4]~input" storage_index="14" tap_mode="probeonly" trigger_index="14" type="unknown"/>
          <node data_index="15" duplicate_name_allowed="false" is_data_input="true" is_node_valid="true" is_selected="false" is_storage_input="true" is_trigger_input="true" name="multiplier_in[5]~input" storage_index="15" tap_mode="probeonly" trigger_index="15" type="unknown"/>
          <node data_index="16" duplicate_name_allowed="false" is_data_input="true" is_node_valid="true" is_selected="false" is_storage_input="true" is_trigger_input="true" name="multiplier_in[6]~input" storage_index="16" tap_mode="probeonly" trigger_index="16" type="unknown"/>
          <node data_index="17" duplicate_name_allowed="false" is_data_input="true" is_node_valid="true" is_selected="false" is_storage_input="true" is_trigger_input="true" name="multiplier_in[7]~input" storage_index="17" tap_mode="probeonly" trigger_index="17" type="unknown"/>
          <node data_index="36" duplicate_name_allowed="false" is_data_input="true" is_node_valid="true" is_selected="false" is_storage_input="true" is_trigger_input="true" level-0="rising edge" name="start_in" storage_index="36" tap_mode="probeonly" trigger_index="36" type="unknown"/>
          <node data_index="37" duplicate_name_allowed="false" is_data_input="true" is_node_valid="true" is_selected="false" is_storage_input="true" is_trigger_input="true" level-0="rising edge" name="start_in~input" storage_index="37" tap_mode="probeonly" trigger_index="37" type="unknown"/>
          <node data_index="20" duplicate_name_allowed="false" is_data_input="true" is_node_valid="true" is_selected="false" is_storage_input="true" is_trigger_input="true" name="seq_multiplier:multiplier|universal_register:accumulator|register_r[0]~18" storage_index="20" tap_mode="probeonly" trigger_index="20" type="unknown"/>
          <node data_index="27" duplicate_name_allowed="false" is_data_input="true" is_node_valid="true" is_selected="false" is_storage_input="true" is_trigger_input="true" name="seq_multiplier:multiplier|universal_register:accumulator|register_r[1]~20" storage_index="27" tap_mode="probeonly" trigger_index="27" type="unknown"/>
          <node data_index="28" duplicate_name_allowed="false" is_data_input="true" is_node_valid="true" is_selected="false" is_storage_input="true" is_trigger_input="true" name="seq_multiplier:multiplier|universal_register:accumulator|register_r[2]~22" storage_index="28" tap_mode="probeonly" trigger_index="28" type="unknown"/>
          <node data_index="29" duplicate_name_allowed="false" is_data_input="true" is_node_valid="true" is_selected="false" is_storage_input="true" is_trigger_input="true" name="seq_multiplier:multiplier|universal_register:accumulator|register_r[3]~24" storage_index="29" tap_mode="probeonly" trigger_index="29" type="unknown"/>
          <node data_index="30" duplicate_name_allowed="false" is_data_input="true" is_node_valid="true" is_selected="false" is_storage_input="true" is_trigger_input="true" name="seq_multiplier:multiplier|universal_register:accumulator|register_r[4]~26" storage_index="30" tap_mode="probeonly" trigger_index="30" type="unknown"/>
          <node data_index="31" duplicate_name_allowed="false" is_data_input="true" is_node_valid="true" is_selected="false" is_storage_input="true" is_trigger_input="true" name="seq_multiplier:multiplier|universal_register:accumulator|register_r[5]~28" storage_index="31" tap_mode="probeonly" trigger_index="31" type="unknown"/>
          <node data_index="32" duplicate_name_allowed="false" is_data_input="true" is_node_valid="true" is_selected="false" is_storage_input="true" is_trigger_input="true" name="seq_multiplier:multiplier|universal_register:accumulator|register_r[6]~30" storage_index="32" tap_mode="probeonly" trigger_index="32" type="unknown"/>
          <node data_index="33" duplicate_name_allowed="false" is_data_input="true" is_node_valid="true" is_selected="false" is_storage_input="true" is_trigger_input="true" name="seq_multiplier:multiplier|universal_register:accumulator|register_r[7]~32" storage_index="33" tap_mode="probeonly" trigger_index="33" type="unknown"/>
          <node data_index="34" duplicate_name_allowed="false" is_data_input="true" is_node_valid="true" is_selected="false" is_storage_input="true" is_trigger_input="true" name="seq_multiplier:multiplier|universal_register:accumulator|register_r[8]~34" storage_index="34" tap_mode="probeonly" trigger_index="34" type="unknown"/>
          <node data_index="35" duplicate_name_allowed="false" is_data_input="true" is_node_valid="true" is_selected="false" is_storage_input="true" is_trigger_input="true" name="seq_multiplier:multiplier|universal_register:accumulator|register_r[9]~36" storage_index="35" tap_mode="probeonly" trigger_index="35" type="unknown"/>
          <node data_index="21" duplicate_name_allowed="false" is_data_input="true" is_node_valid="true" is_selected="false" is_storage_input="true" is_trigger_input="true" name="seq_multiplier:multiplier|universal_register:accumulator|register_r[10]~38" storage_index="21" tap_mode="probeonly" trigger_index="21" type="unknown"/>
          <node data_index="22" duplicate_name_allowed="false" is_data_input="true" is_node_valid="true" is_selected="false" is_storage_input="true" is_trigger_input="true" name="seq_multiplier:multiplier|universal_register:accumulator|register_r[11]~40" storage_index="22" tap_mode="probeonly" trigger_index="22" type="unknown"/>
          <node data_index="23" duplicate_name_allowed="false" is_data_input="true" is_node_valid="true" is_selected="false" is_storage_input="true" is_trigger_input="true" name="seq_multiplier:multiplier|universal_register:accumulator|register_r[12]~42" storage_index="23" tap_mode="probeonly" trigger_index="23" type="unknown"/>
          <node data_index="24" duplicate_name_allowed="false" is_data_input="true" is_node_valid="true" is_selected="false" is_storage_input="true" is_trigger_input="true" name="seq_multiplier:multiplier|universal_register:accumulator|register_r[13]~44" storage_index="24" tap_mode="probeonly" trigger_index="24" type="unknown"/>
          <node data_index="25" duplicate_name_allowed="false" is_data_input="true" is_node_valid="true" is_selected="false" is_storage_input="true" is_trigger_input="true" name="seq_multiplier:multiplier|universal_register:accumulator|register_r[14]~46" storage_index="25" tap_mode="probeonly" trigger_index="25" type="unknown"/>
          <node data_index="26" duplicate_name_allowed="false" is_data_input="true" is_node_valid="true" is_selected="false" is_storage_input="true" is_trigger_input="true" name="seq_multiplier:multiplier|universal_register:accumulator|register_r[15]~48" storage_index="26" tap_mode="probeonly" trigger_index="26" type="unknown"/>
          <node data_index="18" duplicate_name_allowed="false" is_data_input="true" is_node_valid="true" is_selected="false" is_storage_input="true" is_trigger_input="true" name="rst" storage_index="18" tap_mode="probeonly" trigger_index="18" type="unknown"/>
          <node data_index="19" duplicate_name_allowed="false" is_data_input="true" is_node_valid="true" is_selected="false" is_storage_input="true" is_trigger_input="true" level-0="dont_care" name="rst~input" storage_index="19" tap_mode="probeonly" trigger_index="19" type="unknown"/>
          <node data_index="38" duplicate_name_allowed="false" is_data_input="true" is_node_valid="false" is_selected="false" is_storage_input="true" is_trigger_input="true" level-0="falling edge" name="universal_register:product_register|register_r[0]~feeder" storage_index="38" tap_mode="probeonly" trigger_index="38" type="unknown"/>
          <node data_index="40" duplicate_name_allowed="false" is_data_input="true" is_node_valid="false" is_selected="false" is_storage_input="true" is_trigger_input="true" level-0="falling edge" name="universal_register:product_register|register_r[1]~feeder" storage_index="40" tap_mode="probeonly" trigger_index="40" type="unknown"/>
          <node data_index="39" duplicate_name_allowed="false" is_data_input="true" is_node_valid="false" is_selected="false" is_storage_input="true" is_trigger_input="true" level-0="falling edge" name="universal_register:product_register|register_r[15]~feeder" storage_index="39" tap_mode="probeonly" trigger_index="39" type="unknown"/>
        </unified_setup_data_view>
        <data_view>
          <net data_index="0" duplicate_name_allowed="false" is_data_input="true" is_node_valid="true" is_selected="false" is_storage_input="true" is_trigger_input="true" level-0="falling edge" name="clk~input" storage_index="0" tap_mode="probeonly" trigger_index="0" type="unknown"/>
          <net data_index="1" duplicate_name_allowed="false" is_data_input="true" is_node_valid="true" is_selected="false" is_storage_input="true" is_trigger_input="true" level-0="falling edge" name="clk~inputclkctrl" storage_index="1" tap_mode="probeonly" trigger_index="1" type="unknown"/>
          <net data_index="2" duplicate_name_allowed="false" is_data_input="true" is_node_valid="true" is_selected="false" is_storage_input="true" is_trigger_input="true" name="multiplicand_in[0]~input" storage_index="2" tap_mode="probeonly" trigger_index="2" type="unknown"/>
          <net data_index="3" duplicate_name_allowed="false" is_data_input="true" is_node_valid="true" is_selected="false" is_storage_input="true" is_trigger_input="true" name="multiplicand_in[1]~input" storage_index="3" tap_mode="probeonly" trigger_index="3" type="unknown"/>
          <net data_index="4" duplicate_name_allowed="false" is_data_input="true" is_node_valid="true" is_selected="false" is_storage_input="true" is_trigger_input="true" name="multiplicand_in[2]~input" storage_index="4" tap_mode="probeonly" trigger_index="4" type="unknown"/>
          <net data_index="5" duplicate_name_allowed="false" is_data_input="true" is_node_valid="true" is_selected="false" is_storage_input="true" is_trigger_input="true" name="multiplicand_in[3]~input" storage_index="5" tap_mode="probeonly" trigger_index="5" type="unknown"/>
          <net data_index="6" duplicate_name_allowed="false" is_data_input="true" is_node_valid="true" is_selected="false" is_storage_input="true" is_trigger_input="true" name="multiplicand_in[4]~input" storage_index="6" tap_mode="probeonly" trigger_index="6" type="unknown"/>
          <net data_index="7" duplicate_name_allowed="false" is_data_input="true" is_node_valid="true" is_selected="false" is_storage_input="true" is_trigger_input="true" name="multiplicand_in[5]~input" storage_index="7" tap_mode="probeonly" trigger_index="7" type="unknown"/>
          <net data_index="8" duplicate_name_allowed="false" is_data_input="true" is_node_valid="true" is_selected="false" is_storage_input="true" is_trigger_input="true" name="multiplicand_in[6]~input" storage_index="8" tap_mode="probeonly" trigger_index="8" type="unknown"/>
          <net data_index="9" duplicate_name_allowed="false" is_data_input="true" is_node_valid="true" is_selected="false" is_storage_input="true" is_trigger_input="true" name="multiplicand_in[7]~input" storage_index="9" tap_mode="probeonly" trigger_index="9" type="unknown"/>
          <net data_index="10" duplicate_name_allowed="false" is_data_input="true" is_node_valid="true" is_selected="false" is_storage_input="true" is_trigger_input="true" name="multiplier_in[0]~input" storage_index="10" tap_mode="probeonly" trigger_index="10" type="unknown"/>
          <net data_index="11" duplicate_name_allowed="false" is_data_input="true" is_node_valid="true" is_selected="false" is_storage_input="true" is_trigger_input="true" name="multiplier_in[1]~input" storage_index="11" tap_mode="probeonly" trigger_index="11" type="unknown"/>
          <net data_index="12" duplicate_name_allowed="false" is_data_input="true" is_node_valid="true" is_selected="false" is_storage_input="true" is_trigger_input="true" name="multiplier_in[2]~input" storage_index="12" tap_mode="probeonly" trigger_index="12" type="unknown"/>
          <net data_index="13" duplicate_name_allowed="false" is_data_input="true" is_node_valid="true" is_selected="false" is_storage_input="true" is_trigger_input="true" name="multiplier_in[3]~input" storage_index="13" tap_mode="probeonly" trigger_index="13" type="unknown"/>
          <net data_index="14" duplicate_name_allowed="false" is_data_input="true" is_node_valid="true" is_selected="false" is_storage_input="true" is_trigger_input="true" name="multiplier_in[4]~input" storage_index="14" tap_mode="probeonly" trigger_index="14" type="unknown"/>
          <net data_index="15" duplicate_name_allowed="false" is_data_input="true" is_node_valid="true" is_selected="false" is_storage_input="true" is_trigger_input="true" name="multiplier_in[5]~input" storage_index="15" tap_mode="probeonly" trigger_index="15" type="unknown"/>
          <net data_index="16" duplicate_name_allowed="false" is_data_input="true" is_node_valid="true" is_selected="false" is_storage_input="true" is_trigger_input="true" name="multiplier_in[6]~input" storage_index="16" tap_mode="probeonly" trigger_index="16" type="unknown"/>
          <net data_index="17" duplicate_name_allowed="false" is_data_input="true" is_node_valid="true" is_selected="false" is_storage_input="true" is_trigger_input="true" name="multiplier_in[7]~input" storage_index="17" tap_mode="probeonly" trigger_index="17" type="unknown"/>
          <net data_index="36" duplicate_name_allowed="false" is_data_input="true" is_node_valid="true" is_selected="false" is_storage_input="true" is_trigger_input="true" level-0="rising edge" name="start_in" storage_index="36" tap_mode="probeonly" trigger_index="36" type="unknown"/>
          <net data_index="37" duplicate_name_allowed="false" is_data_input="true" is_node_valid="true" is_selected="false" is_storage_input="true" is_trigger_input="true" level-0="rising edge" name="start_in~input" storage_index="37" tap_mode="probeonly" trigger_index="37" type="unknown"/>
          <net data_index="20" duplicate_name_allowed="false" is_data_input="true" is_node_valid="true" is_selected="false" is_storage_input="true" is_trigger_input="true" name="seq_multiplier:multiplier|universal_register:accumulator|register_r[0]~18" storage_index="20" tap_mode="probeonly" trigger_index="20" type="unknown"/>
          <net data_index="27" duplicate_name_allowed="false" is_data_input="true" is_node_valid="true" is_selected="false" is_storage_input="true" is_trigger_input="true" name="seq_multiplier:multiplier|universal_register:accumulator|register_r[1]~20" storage_index="27" tap_mode="probeonly" trigger_index="27" type="unknown"/>
          <net data_index="28" duplicate_name_allowed="false" is_data_input="true" is_node_valid="true" is_selected="false" is_storage_input="true" is_trigger_input="true" name="seq_multiplier:multiplier|universal_register:accumulator|register_r[2]~22" storage_index="28" tap_mode="probeonly" trigger_index="28" type="unknown"/>
          <net data_index="29" duplicate_name_allowed="false" is_data_input="true" is_node_valid="true" is_selected="false" is_storage_input="true" is_trigger_input="true" name="seq_multiplier:multiplier|universal_register:accumulator|register_r[3]~24" storage_index="29" tap_mode="probeonly" trigger_index="29" type="unknown"/>
          <net data_index="30" duplicate_name_allowed="false" is_data_input="true" is_node_valid="true" is_selected="false" is_storage_input="true" is_trigger_input="true" name="seq_multiplier:multiplier|universal_register:accumulator|register_r[4]~26" storage_index="30" tap_mode="probeonly" trigger_index="30" type="unknown"/>
          <net data_index="31" duplicate_name_allowed="false" is_data_input="true" is_node_valid="true" is_selected="false" is_storage_input="true" is_trigger_input="true" name="seq_multiplier:multiplier|universal_register:accumulator|register_r[5]~28" storage_index="31" tap_mode="probeonly" trigger_index="31" type="unknown"/>
          <net data_index="32" duplicate_name_allowed="false" is_data_input="true" is_node_valid="true" is_selected="false" is_storage_input="true" is_trigger_input="true" name="seq_multiplier:multiplier|universal_register:accumulator|register_r[6]~30" storage_index="32" tap_mode="probeonly" trigger_index="32" type="unknown"/>
          <net data_index="33" duplicate_name_allowed="false" is_data_input="true" is_node_valid="true" is_selected="false" is_storage_input="true" is_trigger_input="true" name="seq_multiplier:multiplier|universal_register:accumulator|register_r[7]~32" storage_index="33" tap_mode="probeonly" trigger_index="33" type="unknown"/>
          <net data_index="34" duplicate_name_allowed="false" is_data_input="true" is_node_valid="true" is_selected="false" is_storage_input="true" is_trigger_input="true" name="seq_multiplier:multiplier|universal_register:accumulator|register_r[8]~34" storage_index="34" tap_mode="probeonly" trigger_index="34" type="unknown"/>
          <net data_index="35" duplicate_name_allowed="false" is_data_input="true" is_node_valid="true" is_selected="false" is_storage_input="true" is_trigger_input="true" name="seq_multiplier:multiplier|universal_register:accumulator|register_r[9]~36" storage_index="35" tap_mode="probeonly" trigger_index="35" type="unknown"/>
          <net data_index="21" duplicate_name_allowed="false" is_data_input="true" is_node_valid="true" is_selected="false" is_storage_input="true" is_trigger_input="true" name="seq_multiplier:multiplier|universal_register:accumulator|register_r[10]~38" storage_index="21" tap_mode="probeonly" trigger_index="21" type="unknown"/>
          <net data_index="22" duplicate_name_allowed="false" is_data_input="true" is_node_valid="true" is_selected="false" is_storage_input="true" is_trigger_input="true" name="seq_multiplier:multiplier|universal_register:accumulator|register_r[11]~40" storage_index="22" tap_mode="probeonly" trigger_index="22" type="unknown"/>
          <net data_index="23" duplicate_name_allowed="false" is_data_input="true" is_node_valid="true" is_selected="false" is_storage_input="true" is_trigger_input="true" name="seq_multiplier:multiplier|universal_register:accumulator|register_r[12]~42" storage_index="23" tap_mode="probeonly" trigger_index="23" type="unknown"/>
          <net data_index="24" duplicate_name_allowed="false" is_data_input="true" is_node_valid="true" is_selected="false" is_storage_input="true" is_trigger_input="true" name="seq_multiplier:multiplier|universal_register:accumulator|register_r[13]~44" storage_index="24" tap_mode="probeonly" trigger_index="24" type="unknown"/>
          <net data_index="25" duplicate_name_allowed="false" is_data_input="true" is_node_valid="true" is_selected="false" is_storage_input="true" is_trigger_input="true" name="seq_multiplier:multiplier|universal_register:accumulator|register_r[14]~46" storage_index="25" tap_mode="probeonly" trigger_index="25" type="unknown"/>
          <net data_index="26" duplicate_name_allowed="false" is_data_input="true" is_node_valid="true" is_selected="false" is_storage_input="true" is_trigger_input="true" name="seq_multiplier:multiplier|universal_register:accumulator|register_r[15]~48" storage_index="26" tap_mode="probeonly" trigger_index="26" type="unknown"/>
          <net data_index="18" duplicate_name_allowed="false" is_data_input="true" is_node_valid="true" is_selected="false" is_storage_input="true" is_trigger_input="true" name="rst" storage_index="18" tap_mode="probeonly" trigger_index="18" type="unknown"/>
          <net data_index="19" duplicate_name_allowed="false" is_data_input="true" is_node_valid="true" is_selected="false" is_storage_input="true" is_trigger_input="true" level-0="dont_care" name="rst~input" storage_index="19" tap_mode="probeonly" trigger_index="19" type="unknown"/>
          <net data_index="38" duplicate_name_allowed="false" is_data_input="true" is_node_valid="false" is_selected="false" is_storage_input="true" is_trigger_input="true" level-0="falling edge" name="universal_register:product_register|register_r[0]~feeder" storage_index="38" tap_mode="probeonly" trigger_index="38" type="unknown"/>
          <net data_index="40" duplicate_name_allowed="false" is_data_input="true" is_node_valid="false" is_selected="false" is_storage_input="true" is_trigger_input="true" level-0="falling edge" name="universal_register:product_register|register_r[1]~feeder" storage_index="40" tap_mode="probeonly" trigger_index="40" type="unknown"/>
          <net data_index="39" duplicate_name_allowed="false" is_data_input="true" is_node_valid="false" is_selected="false" is_storage_input="true" is_trigger_input="true" level-0="falling edge" name="universal_register:product_register|register_r[15]~feeder" storage_index="39" tap_mode="probeonly" trigger_index="39" type="unknown"/>
        </data_view>
        <setup_view>
          <net data_index="0" duplicate_name_allowed="false" is_data_input="true" is_node_valid="true" is_selected="false" is_storage_input="true" is_trigger_input="true" level-0="falling edge" name="clk~input" storage_index="0" tap_mode="probeonly" trigger_index="0" type="unknown"/>
          <net data_index="1" duplicate_name_allowed="false" is_data_input="true" is_node_valid="true" is_selected="false" is_storage_input="true" is_trigger_input="true" level-0="falling edge" name="clk~inputclkctrl" storage_index="1" tap_mode="probeonly" trigger_index="1" type="unknown"/>
          <net data_index="2" duplicate_name_allowed="false" is_data_input="true" is_node_valid="true" is_selected="false" is_storage_input="true" is_trigger_input="true" name="multiplicand_in[0]~input" storage_index="2" tap_mode="probeonly" trigger_index="2" type="unknown"/>
          <net data_index="3" duplicate_name_allowed="false" is_data_input="true" is_node_valid="true" is_selected="false" is_storage_input="true" is_trigger_input="true" name="multiplicand_in[1]~input" storage_index="3" tap_mode="probeonly" trigger_index="3" type="unknown"/>
          <net data_index="4" duplicate_name_allowed="false" is_data_input="true" is_node_valid="true" is_selected="false" is_storage_input="true" is_trigger_input="true" name="multiplicand_in[2]~input" storage_index="4" tap_mode="probeonly" trigger_index="4" type="unknown"/>
          <net data_index="5" duplicate_name_allowed="false" is_data_input="true" is_node_valid="true" is_selected="false" is_storage_input="true" is_trigger_input="true" name="multiplicand_in[3]~input" storage_index="5" tap_mode="probeonly" trigger_index="5" type="unknown"/>
          <net data_index="6" duplicate_name_allowed="false" is_data_input="true" is_node_valid="true" is_selected="false" is_storage_input="true" is_trigger_input="true" name="multiplicand_in[4]~input" storage_index="6" tap_mode="probeonly" trigger_index="6" type="unknown"/>
          <net data_index="7" duplicate_name_allowed="false" is_data_input="true" is_node_valid="true" is_selected="false" is_storage_input="true" is_trigger_input="true" name="multiplicand_in[5]~input" storage_index="7" tap_mode="probeonly" trigger_index="7" type="unknown"/>
          <net data_index="8" duplicate_name_allowed="false" is_data_input="true" is_node_valid="true" is_selected="false" is_storage_input="true" is_trigger_input="true" name="multiplicand_in[6]~input" storage_index="8" tap_mode="probeonly" trigger_index="8" type="unknown"/>
          <net data_index="9" duplicate_name_allowed="false" is_data_input="true" is_node_valid="true" is_selected="false" is_storage_input="true" is_trigger_input="true" name="multiplicand_in[7]~input" storage_index="9" tap_mode="probeonly" trigger_index="9" type="unknown"/>
          <net data_index="10" duplicate_name_allowed="false" is_data_input="true" is_node_valid="true" is_selected="false" is_storage_input="true" is_trigger_input="true" name="multiplier_in[0]~input" storage_index="10" tap_mode="probeonly" trigger_index="10" type="unknown"/>
          <net data_index="11" duplicate_name_allowed="false" is_data_input="true" is_node_valid="true" is_selected="false" is_storage_input="true" is_trigger_input="true" name="multiplier_in[1]~input" storage_index="11" tap_mode="probeonly" trigger_index="11" type="unknown"/>
          <net data_index="12" duplicate_name_allowed="false" is_data_input="true" is_node_valid="true" is_selected="false" is_storage_input="true" is_trigger_input="true" name="multiplier_in[2]~input" storage_index="12" tap_mode="probeonly" trigger_index="12" type="unknown"/>
          <net data_index="13" duplicate_name_allowed="false" is_data_input="true" is_node_valid="true" is_selected="false" is_storage_input="true" is_trigger_input="true" name="multiplier_in[3]~input" storage_index="13" tap_mode="probeonly" trigger_index="13" type="unknown"/>
          <net data_index="14" duplicate_name_allowed="false" is_data_input="true" is_node_valid="true" is_selected="false" is_storage_input="true" is_trigger_input="true" name="multiplier_in[4]~input" storage_index="14" tap_mode="probeonly" trigger_index="14" type="unknown"/>
          <net data_index="15" duplicate_name_allowed="false" is_data_input="true" is_node_valid="true" is_selected="false" is_storage_input="true" is_trigger_input="true" name="multiplier_in[5]~input" storage_index="15" tap_mode="probeonly" trigger_index="15" type="unknown"/>
          <net data_index="16" duplicate_name_allowed="false" is_data_input="true" is_node_valid="true" is_selected="false" is_storage_input="true" is_trigger_input="true" name="multiplier_in[6]~input" storage_index="16" tap_mode="probeonly" trigger_index="16" type="unknown"/>
          <net data_index="17" duplicate_name_allowed="false" is_data_input="true" is_node_valid="true" is_selected="false" is_storage_input="true" is_trigger_input="true" name="multiplier_in[7]~input" storage_index="17" tap_mode="probeonly" trigger_index="17" type="unknown"/>
          <net data_index="36" duplicate_name_allowed="false" is_data_input="true" is_node_valid="true" is_selected="false" is_storage_input="true" is_trigger_input="true" level-0="rising edge" name="start_in" storage_index="36" tap_mode="probeonly" trigger_index="36" type="unknown"/>
          <net data_index="37" duplicate_name_allowed="false" is_data_input="true" is_node_valid="true" is_selected="false" is_storage_input="true" is_trigger_input="true" level-0="rising edge" name="start_in~input" storage_index="37" tap_mode="probeonly" trigger_index="37" type="unknown"/>
          <net data_index="20" duplicate_name_allowed="false" is_data_input="true" is_node_valid="true" is_selected="false" is_storage_input="true" is_trigger_input="true" name="seq_multiplier:multiplier|universal_register:accumulator|register_r[0]~18" storage_index="20" tap_mode="probeonly" trigger_index="20" type="unknown"/>
          <net data_index="27" duplicate_name_allowed="false" is_data_input="true" is_node_valid="true" is_selected="false" is_storage_input="true" is_trigger_input="true" name="seq_multiplier:multiplier|universal_register:accumulator|register_r[1]~20" storage_index="27" tap_mode="probeonly" trigger_index="27" type="unknown"/>
          <net data_index="28" duplicate_name_allowed="false" is_data_input="true" is_node_valid="true" is_selected="false" is_storage_input="true" is_trigger_input="true" name="seq_multiplier:multiplier|universal_register:accumulator|register_r[2]~22" storage_index="28" tap_mode="probeonly" trigger_index="28" type="unknown"/>
          <net data_index="29" duplicate_name_allowed="false" is_data_input="true" is_node_valid="true" is_selected="false" is_storage_input="true" is_trigger_input="true" name="seq_multiplier:multiplier|universal_register:accumulator|register_r[3]~24" storage_index="29" tap_mode="probeonly" trigger_index="29" type="unknown"/>
          <net data_index="30" duplicate_name_allowed="false" is_data_input="true" is_node_valid="true" is_selected="false" is_storage_input="true" is_trigger_input="true" name="seq_multiplier:multiplier|universal_register:accumulator|register_r[4]~26" storage_index="30" tap_mode="probeonly" trigger_index="30" type="unknown"/>
          <net data_index="31" duplicate_name_allowed="false" is_data_input="true" is_node_valid="true" is_selected="false" is_storage_input="true" is_trigger_input="true" name="seq_multiplier:multiplier|universal_register:accumulator|register_r[5]~28" storage_index="31" tap_mode="probeonly" trigger_index="31" type="unknown"/>
          <net data_index="32" duplicate_name_allowed="false" is_data_input="true" is_node_valid="true" is_selected="false" is_storage_input="true" is_trigger_input="true" name="seq_multiplier:multiplier|universal_register:accumulator|register_r[6]~30" storage_index="32" tap_mode="probeonly" trigger_index="32" type="unknown"/>
          <net data_index="33" duplicate_name_allowed="false" is_data_input="true" is_node_valid="true" is_selected="false" is_storage_input="true" is_trigger_input="true" name="seq_multiplier:multiplier|universal_register:accumulator|register_r[7]~32" storage_index="33" tap_mode="probeonly" trigger_index="33" type="unknown"/>
          <net data_index="34" duplicate_name_allowed="false" is_data_input="true" is_node_valid="true" is_selected="false" is_storage_input="true" is_trigger_input="true" name="seq_multiplier:multiplier|universal_register:accumulator|register_r[8]~34" storage_index="34" tap_mode="probeonly" trigger_index="34" type="unknown"/>
          <net data_index="35" duplicate_name_allowed="false" is_data_input="true" is_node_valid="true" is_selected="false" is_storage_input="true" is_trigger_input="true" name="seq_multiplier:multiplier|universal_register:accumulator|register_r[9]~36" storage_index="35" tap_mode="probeonly" trigger_index="35" type="unknown"/>
          <net data_index="21" duplicate_name_allowed="false" is_data_input="true" is_node_valid="true" is_selected="false" is_storage_input="true" is_trigger_input="true" name="seq_multiplier:multiplier|universal_register:accumulator|register_r[10]~38" storage_index="21" tap_mode="probeonly" trigger_index="21" type="unknown"/>
          <net data_index="22" duplicate_name_allowed="false" is_data_input="true" is_node_valid="true" is_selected="false" is_storage_input="true" is_trigger_input="true" name="seq_multiplier:multiplier|universal_register:accumulator|register_r[11]~40" storage_index="22" tap_mode="probeonly" trigger_index="22" type="unknown"/>
          <net data_index="23" duplicate_name_allowed="false" is_data_input="true" is_node_valid="true" is_selected="false" is_storage_input="true" is_trigger_input="true" name="seq_multiplier:multiplier|universal_register:accumulator|register_r[12]~42" storage_index="23" tap_mode="probeonly" trigger_index="23" type="unknown"/>
          <net data_index="24" duplicate_name_allowed="false" is_data_input="true" is_node_valid="true" is_selected="false" is_storage_input="true" is_trigger_input="true" name="seq_multiplier:multiplier|universal_register:accumulator|register_r[13]~44" storage_index="24" tap_mode="probeonly" trigger_index="24" type="unknown"/>
          <net data_index="25" duplicate_name_allowed="false" is_data_input="true" is_node_valid="true" is_selected="false" is_storage_input="true" is_trigger_input="true" name="seq_multiplier:multiplier|universal_register:accumulator|register_r[14]~46" storage_index="25" tap_mode="probeonly" trigger_index="25" type="unknown"/>
          <net data_index="26" duplicate_name_allowed="false" is_data_input="true" is_node_valid="true" is_selected="false" is_storage_input="true" is_trigger_input="true" name="seq_multiplier:multiplier|universal_register:accumulator|register_r[15]~48" storage_index="26" tap_mode="probeonly" trigger_index="26" type="unknown"/>
          <net data_index="18" duplicate_name_allowed="false" is_data_input="true" is_node_valid="true" is_selected="false" is_storage_input="true" is_trigger_input="true" name="rst" storage_index="18" tap_mode="probeonly" trigger_index="18" type="unknown"/>
          <net data_index="19" duplicate_name_allowed="false" is_data_input="true" is_node_valid="true" is_selected="false" is_storage_input="true" is_trigger_input="true" level-0="dont_care" name="rst~input" storage_index="19" tap_mode="probeonly" trigger_index="19" type="unknown"/>
          <net data_index="38" duplicate_name_allowed="false" is_data_input="true" is_node_valid="false" is_selected="false" is_storage_input="true" is_trigger_input="true" level-0="falling edge" name="universal_register:product_register|register_r[0]~feeder" storage_index="38" tap_mode="probeonly" trigger_index="38" type="unknown"/>
          <net data_index="40" duplicate_name_allowed="false" is_data_input="true" is_node_valid="false" is_selected="false" is_storage_input="true" is_trigger_input="true" level-0="falling edge" name="universal_register:product_register|register_r[1]~feeder" storage_index="40" tap_mode="probeonly" trigger_index="40" type="unknown"/>
          <net data_index="39" duplicate_name_allowed="false" is_data_input="true" is_node_valid="false" is_selected="false" is_storage_input="true" is_trigger_input="true" level-0="falling edge" name="universal_register:product_register|register_r[15]~feeder" storage_index="39" tap_mode="probeonly" trigger_index="39" type="unknown"/>
        </setup_view>
        <trigger_in_editor/>
        <trigger_out_editor/>
      </presentation>
      <trigger CRC="CD5C732F" attribute_mem_mode="false" gap_record="true" global_temp="1" is_expanded="true" name="trigger: 2023/09/09 18:19:00  #0" position="pre" power_up_trigger_mode="false" record_data_gap="true" segment_size="1" storage_mode="off" storage_qualifier_disabled="no" storage_qualifier_port_is_pin="true" storage_qualifier_port_name="auto_stp_external_storage_qualifier" storage_qualifier_port_tap_mode="classic" trigger_type="circular">
        <power_up_trigger position="pre" storage_qualifier_disabled="no"/>
        <events use_custom_flow_control="no">
          <level enabled="yes" name="condition1" type="basic">'clk~input' == falling edge &amp;&amp; 'clk~inputclkctrl' == falling edge &amp;&amp; 'start_in' == rising edge &amp;&amp; 'start_in~input' == rising edge &amp;&amp; 'universal_register:product_register|register_r[0]~feeder' == falling edge &amp;&amp; 'universal_register:product_register|register_r[15]~feeder' == falling edge &amp;&amp; 'universal_register:product_register|register_r[1]~feeder' == falling edge
            <power_up enabled="yes">
            </power_up>
            <op_node/>
          </level>
        </events>
        <storage_qualifier_events>
          <transitional>11111111111111111111111111111111111111111
            <pwr_up_transitional>11111111111111111111111111111111111111111</pwr_up_transitional>
          </transitional>
          <storage_qualifier_level type="basic">
            <power_up>
            </power_up>
            <op_node/>
          </storage_qualifier_level>
          <storage_qualifier_level type="basic">
            <power_up>
            </power_up>
            <op_node/>
          </storage_qualifier_level>
          <storage_qualifier_level type="basic">
            <power_up>
            </power_up>
            <op_node/>
          </storage_qualifier_level>
        </storage_qualifier_events>
      </trigger>
    </signal_set>
    <position_info>
      <single attribute="active tab" value="0"/>
      <single attribute="data horizontal scroll position" value="64"/>
      <single attribute="data vertical scroll position" value="7"/>
      <single attribute="setup hierarchy seq_multiplier:multiplier" value="3"/>
      <single attribute="setup hierarchy sequential_multiplier" value="3"/>
      <single attribute="setup hierarchy universal_register:accumulator" value="3"/>
      <single attribute="setup hierarchy universal_register:product_register" value="3"/>
      <single attribute="setup horizontal scroll position" value="0"/>
      <single attribute="setup vertical scroll position" value="7"/>
      <single attribute="zoom level denominator" value="1"/>
      <single attribute="zoom level numerator" value="2"/>
      <single attribute="zoom offset denominator" value="1"/>
      <single attribute="zoom offset numerator" value="65472"/>
    </position_info>
  </instance>
  <mnemonics/>
  <static_plugin_mnemonics/>
  <global_info>
    <single attribute="active instance" value="0"/>
    <single attribute="config widget visible" value="1"/>
    <single attribute="data log widget visible" value="1"/>
    <single attribute="hierarchy widget visible" value="1"/>
    <single attribute="instance widget visible" value="1"/>
    <single attribute="jtag widget visible" value="1"/>
    <single attribute="lock mode" value="0"/>
    <multi attribute="column width" size="23" value="34,34,557,74,68,78,95,96,98,98,88,88,110,101,101,101,101,101,101,101,101,107,78"/>
    <multi attribute="frame size" size="2" value="2256,1398"/>
    <multi attribute="jtag widget size" size="2" value="447,166"/>
  </global_info>
</session>
